"entry_id","location_id","name","scientific_name","habitat","food","nesting","size","behavior","conservation","researcher_1","researcher_2","researcher_3","date"
"entry_001","location_1","Barn owl","Tyto alba","Grasslands","Mammals","Building",,"Aerial Dive","Low Concern",0,1,0,"2020-03-01"
"entry_002","location_2","Barn owl","Tyto alba","Grasslands","Mammals","Building",,"Aerial Dive","Low Concern",0,0,0,"March 2 2020"
"entry_003","location_3","Barn owl","Tyto alba","Grasslands","Mammals","Building",,"Aerial Dive","Low Concern",0,0,0,"March 3, 2020"
"entry_004","location_1","Barred Owl","Strix varia","Forests","Mammals","Tree",,"Aerial Dive","Low Concern",4,1,4,"2020-03-04"
"entry_005","location_2","Barred Owl","Strix varia","Forests","Mammals","Tree",,"Aerial Dive","Low Concern",0,0,0,"2020-03-05"
"entry_006","location_3","Barred Owl","Strix varia","Forests","Mammals","Tree",,"Aerial Dive","Low Concern",0,0,3,"2020-03-06"
"entry_007","location_1","Burrowing Owl","Athene cunicularia","Grasslands","Small Animals","Burrow",,"Ground Forager",,0,4,1,"2020-03-07"
"entry_008","location_2","Burrowing Owl","Athene cunicularia","Grasslands","Small Animals","Burrow",,"Ground Forager","Low Concern",0,4,1,"2020-03-08"
"entry_009","location_3","Burrowing Owl","Athene cunicularia","Grasslands","Small Animals","Burrow",,"Ground Forager","Low Concern",14,2,6,"2020-03-09"
"entry_010","location_1","Common Loon","Gavia immer","Lakes and Ponds","Fish","Ground",,"Surface Dive","Low Concern",0,0,0,"2020-03-10"
"entry_011","location_2","Common Loon","Gavia immer","Lakes and Ponds","Fish","Ground",,"Surface Dive","Low Concern",10,4,3,"2020-03-11"
"entry_012","location_3","Common Loon","Gavia immer","Lakes and Ponds","Fish","Ground",,"Surface Dive","Low Concern",0,0,1,"2020-03-12"
"entry_013","location_1","Cooper's Hawk","Accipiter cooperii","Forests","Birds","Tree",,"Aerial Forager","Low Concern",2,2,2,"2020-03-13"
"entry_014","location_2","Cooper's Hawk","Accipiter cooperii","Forests","Birds","Tree",,"Aerial Forager","Low Concern",0,0,0,"2020-03-14"
"entry_015","location_3","Cooper's Hawk","Accipiter cooperii","Forests","Birds","Tree",,"Aerial Forager","Low Concern",2,9,3,"2020-03-15"
"entry_016","location_1","Eared Grebe","Podiceps nigricollis","Lakes and Ponds","Aquatic invertebrates","Floating",,"Surface Dive","Low Concern",0,0,0,"2020-03-16"
"entry_017","location_2","Eared Grebe","Podiceps nigricollis","Lakes and Ponds","Aquatic invertebrates","Floating",,"Surface Dive","Low Concern",8,4,9,"2020-03-17"
"entry_018","location_3","Eared Grebe","Podiceps nigricollis","Lakes and Ponds","Aquatic invertebrates","Floating",,"Surface Dive","Low Concern",8,3,2,"2020-03-18"
"entry_019","location_1","Eastern screech-Owl","Megascops asio","Forests","Small Animals","Cavity",,"Aerial Dive","Low Concern",1,3,3,"2020-03-19"
"entry_020","location_2","Eastern screech-Owl","Megascops asio","Forests","Small Animals","Cavity",,"Aerial Dive","Low Concern",0,0,0,"2020-03-20"
"entry_021","location_3","Eastern screech-Owl","Megascops asio","Forests","Small Animals","Cavity",,"Aerial Dive","Low Concern",0,1,0,"2020-03-21"
"entry_022","location_1","Gray Catbird","Dumetella carolinensis","Open Woodlands","Insects","Shrub",,"Ground Forager","Low Concern",6,13,10,"2020-03-22"
"entry_023","location_2","Gray Catbird","Dumetella carolinensis","Open Woodlands","Insects","Shrub",,"Ground Forager","Low Concern",0,0,1,"2020-03-23"
"entry_024","location_3","Gray Catbird","Dumetella carolinensis","Open Woodlands","Insects","Shrub",,"Ground Forager","Low Concern",3,8,1,"2020-03-24"
"entry_025","location_1","Great Blue Heron","Ardea herodias","Marshes","Fish","Tree",,"Stalking","Low Concern",1,0,0,"2020-03-25"
"entry_026","location_2","Great Blue Heron","Ardea herodias","Marshes","Fish","Tree",,"Stalking","Low Concern",6,18,5,"2020-03-26"
"entry_027","location_3","Great Blue Heron","Ardea herodias","marshes","Fish","Tree",,"Stalking","Low Concern",0,1,0,"2020-03-27"
"entry_027","location_3","Great Blue Heron","Ardea herodias","marshes","Fish","Tree",,"Stalking","Low Concern",0,1,0,"2020-03-27"
"entry_027","location_3","Great Blue Heron","Ardea herodias","Marshes","Fish","Tree",,"Stalking","Low Concern",0,1,0,"2020-03-27"
"entry_028","location_1","Great Egret","Ardea alba","Marshes","Fish","Tree",,"Stalking","Low Concern",0,1,0,"2020-03-28"
"entry_029","location_2","Great Egret","Ardea alba","Marshes","Fish","Tree",,,"Low Concern",5,14,3,"2020-03-29"
"entry_030","location_3","Great Egret","Ardea alba","Marshes","Fish","Tree",,"Stalking","Low Concern",0,1,0,"2020-03-30"
"entry_031","location_1","Great Horned Owl","Bubo virginianus","Forests","Mammals","Tree",,"Aerial Dive","Low Concern",3,3,1,"2020-03-31"
"entry_032","location_2","Great Horned Owl","Bubo virginianus","Forests","Mammals","Tree",,"Aerial Dive","Low Concern",0,0,0,"2020 April 01"
"entry_033","location_3","Great Horned Owl","Bubo virginianus","Forests","Mammals","Tree",,"Aerial Dive","Low Concern",0,1,0,"April 2nd, 2020"
"entry_034","location_1","Horned Grebe","Podiceps auritus","Lakes and Ponds","Aquatic invertebrates","Floating",,"Surface Dive","Low Concern",1,2,0,"April 3, 2020"
"entry_035","location_2","Horned Grebe","Podiceps auritus","Lakes and Ponds","Aquatic invertebrates","Floating",,"Surface Dive","Low Concern",4,9,4,"04/04/2020"
"entry_036","location_3","Horned Grebe","Podiceps auritus","Lakes and Ponds","Aquatic invertebrates","Floating",,"Surface Dive","Low Concern",1,2,1,"04/05/2020"
"entry_037","location_1","Killdeer","Charadrius vociferus","Grasslands","Insects","Ground",,"Ground Forager","Low Concern",1,4,0,"2020-04-06"
"entry_038","location_2","Killdeer","Charadrius vociferus","Grasslands","Insects","Ground",,"Ground Forager","Low Concern",1,0,2,"2020-04-07"
"entry_039","location_3","Killdeer","Charadrius vociferus","Grasslands","Insects","Ground",,"Ground Forager","Low Concern",4,12,7,"2020-04-08"
"entry_040","location_1","Long-eared Owl","Asio otus","Forests","Mammals","Tree",,"Aerial Dive","Declining",0,0,1,"2020-04-09"
"entry_041","location_2","Long-eared Owl","Asio otus","Forests","Mammal","Tree",,"Aerial Dive","Declining",0,0,0,"2020-04-10"
"entry_042","location_3","Long-eared Owl","Asio otus","Forests","Mammal","Tree",,"Aerial Dive","Declining",0,0,0,"2020-04-11"
"entry_043","location_1","Northern Cardinal","Cardinalis cardinalis","Open Woodlands","Seeds","Shrub",,"Ground Forager","Low Concern",25,19,17,"2020-04-12"
"entry_044","location_2","Northern Cardinal","Cardinalis cardinalis","Open Woodlands","Seeds","Shrub",,"Ground Forager","Low Concern",10,3,8,"2020-04-13"
"entry_045","location_3","Northern Cardinal","Cardinalis cardinalis","Open Woodlands","Seeds","Shrub",,"Ground Forager","Low Concern",0,3,1,"2020-04-14"
"entry_046","location_1","Northern Goshawk","Accipiter gentilis","Forests","Birds","Tree",,"Aerial Dive","Low Concern",4,3,3,"2020-04-15"
"entry_047","location_2","Northern Goshawk","Accipiter gentilis","Forests","Birds","Tree",,"Aerial Dive","Low Concern",0,0,0,"2020-04-16"
"entry_048","location_3","Northern Goshawk","Accipiter gentilis","Forests","Birds","Tree",,"Aerial Dive","Low Concern",3,1,0,"2020-04-17"
"entry_049","location_1","Northern Mockingbird","Mimus polyglottos","Towns","Omnivore","Shrub",,"Ground Forager","Low Concern",7,12,10,"2020-04-18"
"entry_050","location_2","Northern Mockingbird","Mimus polyglottos","Towns","Omnivore","Shrub",,"Ground Forager","Low Concern",2,5,0,"2020-04-19"
"entry_051","location_3","Northern Mockingbird","Mimus polyglottos","Towns","Omnivore","Shrub",,"Ground Forager","Low Concern",0,1,2,"2020-04-20"
"entry_052","location_1","Northern Saw-whet Owl","Aegolius acadicus","Forests ","Mammals","Cavity",,"Aerial Dive","Low Concern",2,0,0,"2020-04-21"
"entry_053","location_2","Northern Saw-whet Owl","Aegolius acadicus","Forests ","Mammals","Cavity",,"Aerial Dive","Low Concern",0,0,0,"2020-04-22"
"entry_054","location_3","Northern Saw-whet Owl","Aegolius acadicus","Forests ","Mammals","Cavity",,"Aerial Dive","Low Concern",1,1,0,"2020-04-23"
"entry_055","location_1","Pacific Loon","Gavia pacifica","Lakes and Ponds","Fish","Ground",,"Surface Dive","Low Concern",1,2,2,"2020-04-24"
"entry_056","location_2","Pacific Loon","Gavia pacifica","Lakes and Ponds","Fish","Ground",,"Surface Dive","Low Concern",23,11,2,"2020-04-25"
"entry_057","location_3","Pacific Loon",,"Lakes and Ponds","Fish","Ground",,"Surface Dive","Low Concern",8,4,2,"2020-04-26"
"entry_058","location_1","Pied-billed Grebe","Podilymbus podiceps","Lakes and Ponds","Aquatic invertebrates","Floating",,"Surface Dive","Low Concern",1,4,2,"2020-04-27"
"entry_059","location_2","Pied-billed Grebe","Podilymbus podiceps","Lakes and Ponds","Aquatic invertebrates","Floating",,"Surface Dive","Low Concern",2,3,2,"2020-04-28"
"entry_060","location_3","Pied-billed Grebe","Podilymbus podiceps","Lakes and Ponds","Aquatic invertebrates","Floating",,"Surface Dive","Low Concern",1,2,2,"2020-04-29"
"entry_061","location_1","Piping Plover","Charadrius melodus","Shorelines","Aquatic invertebrates","Ground",,"Ground Forager","Red Watch List",0,1,0,"May 1, 2020"
"entry_062","location_2","Piping Plover","Charadrius melodus","Shorelines","Aquatic invertebrates","Ground",,"Ground Forager","Red Watch List",0,1,0,"May 2, 2020"
"entry_063","location_3","Piping Plover","Charadrius melodus","Shorelines","Aquatic invertebrates","Ground",,"Ground Forager","Red Watch List",0,1,0,"May 3, 2020"
"entry_064","location_1","Red-necked Grebe","Podiceps grisegena","Lakes and Ponds","Fish","Floating",,"Surface Dive","Low Concern",5,3,0,"May 4, 2020"
"entry_065","location_2","Red-necked Grebe","Podiceps grisegena","Lakes and Ponds","Fish","Floating",,"Surface Dive","Low Concern",7,12,0,"2020-05-05"
"entry_066","location_3","Red-necked Grebe","Podiceps grisegena","Lakes and Ponds","Fish","Floating",,"Surface Dive","Low Concern",5,3,0,"2020-05-06"
"entry_067","location_1","Red-throated Loon","Gavia stellata","Lakes and Ponds","Fish","Ground",,"Surface Dive","Low Concern",0,1,0,"2020-05-07"
"entry_068","location_2","Red-throated Loon","Gavia stellata","Lakes and Ponds","Fish","Ground",,"Surface Dive","Low Concern",10,5,14,"2020-05-08"
"entry_069","location_3","Red-throated Loon","Gavia stellata","Lakes and Ponds","Fish","Ground",,"Surface Dive","Low Concern",1,0,0,"2020-05-09"
"entry_070","location_1","Rose-breasted Grosbeak","Pheucticus ludovicianus","Forests","Insects","Tree",,"Foliage Gleaner","Low Concern",10,11,13,"2020-05-10"
"entry_071","location_2","Rose-breasted Grosbeak","Pheucticus ludovicianus","Forests","Insects","Tree",,"Foliage Gleaner","Low Concern",2,3,0,"2020-05-11"
"entry_072","location_3","Rose-breasted Grosbeak","Pheucticus ludovicianus","Forests","Insects","Tree",,"Foliage Gleaner","Low Concern",8,7,7,"2020-05-12"
"entry_073","location_1","Sharp-shinned Hawk","Accipiter striatus","Forests","Birds","Tree",,"Aerial Dive","Low Concern",7,5,2,"2020-05-13"
,,,,,,,,,,,,,
"entry_074","location_2","Sharp-shinned Hawk","Accipiter striatus","Forests","Birds","Tree",,"Aerial Dive","Low Concern",0,0,1,"2020-05-14"
"entry_075","location_3","Sharp-shinned Hawk","Accipiter striatus","Forests","Birds","Tree",,"Aerial Dive","Low Concern",1,2,0,"2020-05-15"
"entry_076","location_1","Short-eared Owl","Asio flammeus","Grasslands","Mammals","Ground",,"Aerial Dive","In Steep Decline",0,0,1,"2020-05-16"
"entry_077","location_2","Short-eared Owl","Asio flammeus","Grasslands","Mammals","Ground",,"Aerial Dive","In Steep Decline",0,0,0,"2020-05-17"
"entry_078","location_3","short-eared owl","Asio flammeus","Grasslands","Mammals","Ground",,"Aerial Dive","In Steep Decline",0,0,0,"2020-05-18"
"entry_079","location_1","Snowy Egret","Egretta thula","Marshes","Fish","Tree",,"Stalking","Low Concern",1,2,4,"2020-05-19"
"entry_080","location_2","Snowy Egret","Egretta thula","Marshes","Fish","Tree",,"Stalking","Low Concern",12,8,7,"2020-05-20"
"entry_081","location_3","Snowy Egret","Egretta thula","Marshes","Fish","Tree",,"Stalking","Low Concern",0,0,2,"2020-05-21"
"entry_082","location_1","Snowy Owl","Bubo scandiaca","Tundra","Mammals","Ground",,"Aerial Dive","Declining",0,1,0,"2020-05-22"
"entry_083","location_2","Snowy Owl","Bubo scandiaca","Tundra","Mammals","Ground",,"Aerial Dive","Declining",0,0,0,"2020-05-23"
"entry_084","location_3","Snowy Owl","Bubo scandiaca","Tundra","Mammals","Ground",,"Aerial Dive","Declining",0,0,0,"2020-05-24"
"entry_085","location_1","Western Grebe","Aechmophorus occidentalis","Lakes and Ponds","Aquatic invertebrates","Floating",,"Surface Dive","Low Concern",1,0,0,"2020-05-25"
"entry_086","location_2","Western Grebe","Aechmophorus occidentalis","Lakes and Ponds","Aquatic invertebrates","Floating",,"Surface Dive","Low Concern",11,6,9,"2020-05-26"
"entry_087","location_3","Western Grebe","Aechmophorus occidentalis","Lakes and Ponds","Aquatic invertebrates","Floating",,"Surface Dive","Low Concern",2,1,5,"2020-05-27"
